[gd_resource type="Environment" load_steps=2 format=2]

[sub_resource type="ProceduralSky" id=1]

[resource]
resource_local_to_scene = true
background_sky = SubResource( 1 )
ambient_light_color = Color( 1, 1, 1, 1 )
ambient_light_sky_contribution = 0.48
